# Fdb version 2
["bibtex vorlage"] 1328447001 "vorlage.aux" "vorlage.bbl" "vorlage" 
  "lib.bib" 1328018136 2387 c870599034234ead12702fdd66a136f0 ""
  "vorlage.aux" 1328447001 1662 63929f9dca31f89ba623527d0b9fa392 ""
["pdflatex"] 1328452389 "/Volumes/Storage/04 Dropbox/Dropbox/04 Studium/01KIT/2011WS/Fortgeschrittene Datenstrukturen/vorlage.tex" "vorlage.pdf" "vorlage" 
  "/Volumes/Storage/04 Dropbox/Dropbox/04 Studium/01KIT/2011WS/Fortgeschrittene Datenstrukturen/vorlage.tex" 1328452387 20789 591e291518b03a35fae7186fc487f53a ""
  "/usr/local/texlive/2009/texmf-dist/tex/context/base/supp-pdf.mkii" 1251025892 71625 fad1c4b52151c234b6873a255b0ad6b3 ""
  "/usr/local/texlive/2009/texmf-dist/tex/latex/algorithm2e/algorithm2e.sty" 1137109875 90314 30002475f17985f6891a4234c2b3fb79 ""
  "/usr/local/texlive/2009/texmf-dist/tex/latex/amscls/amsthm.sty" 1156703123 13294 f63af559496acbb4ffecc2de353745eb ""
  "/usr/local/texlive/2009/texmf-dist/tex/latex/amsmath/amsbsy.sty" 1156703163 3535 ce75ca6de8380293f2081dec8ab08a93 ""
  "/usr/local/texlive/2009/texmf-dist/tex/latex/amsmath/amsgen.sty" 1156703163 5453 08b555fa01ef74ce33d74813d74c2362 ""
  "/usr/local/texlive/2009/texmf-dist/tex/latex/amsmath/amsmath.sty" 1156703163 79756 c9b39210cd9d3168825ff6f880d43821 ""
  "/usr/local/texlive/2009/texmf-dist/tex/latex/amsmath/amsopn.sty" 1156703163 5082 c925b14d21ef5c56597fe90e8e1686ad ""
  "/usr/local/texlive/2009/texmf-dist/tex/latex/amsmath/amstext.sty" 1156703163 3745 bcdc4858c6f7cfeb8e957b4284216414 ""
  "/usr/local/texlive/2009/texmf-dist/tex/latex/base/article.cls" 1254151887 20571 b8bd218bf2e18b4f5817ee643cd9c515 ""
  "/usr/local/texlive/2009/texmf-dist/tex/latex/base/ifthen.sty" 1254151887 5022 2ec7815b07dc68e65542e23a180bc839 ""
  "/usr/local/texlive/2009/texmf-dist/tex/latex/base/omscmr.fd" 1254151887 2109 c400bd6c901edc4a09e4d53fcffd3b3c ""
  "/usr/local/texlive/2009/texmf-dist/tex/latex/base/size11.clo" 1254151887 9058 640f9c40a6d912e30839a669c8a999ec ""
  "/usr/local/texlive/2009/texmf-dist/tex/latex/enumitem/enumitem.sty" 1242688624 19669 c0ad7dde66d5e4e2f0fef1b011b8b141 ""
  "/usr/local/texlive/2009/texmf-dist/tex/latex/graphics/graphics.sty" 1254151804 14183 42a8fc761b806986eef292369afc2988 ""
  "/usr/local/texlive/2009/texmf-dist/tex/latex/graphics/graphicx.sty" 1156702488 7882 3bd78469d444e8d494e27cfd7ca92719 ""
  "/usr/local/texlive/2009/texmf-dist/tex/latex/graphics/keyval.sty" 1156702488 2266 7054435e4584a41cf53b0a7ca624d0cb ""
  "/usr/local/texlive/2009/texmf-dist/tex/latex/graphics/trig.sty" 1156702488 3153 c50e6bd54d2dd3933fc52bcf369bec4a ""
  "/usr/local/texlive/2009/texmf-dist/tex/latex/latexconfig/graphics.cfg" 1255993321 3328 2584cfe577535f0a08f3a9717b5152ab ""
  "/usr/local/texlive/2009/texmf-dist/tex/latex/natbib/natbib.sty" 1248303454 45154 40088ce024445d7ee2bca59e704cdd01 ""
  "/usr/local/texlive/2009/texmf-dist/tex/latex/ntgclass/a4.sty" 1137110457 4634 297db5b00844da9a761d5b410c03f87c ""
  "/usr/local/texlive/2009/texmf-dist/tex/latex/pdftex-def/pdftex.def" 1251331185 39669 16063b1549cf8fb64607751b50e3b3e5 ""
  "/usr/local/texlive/2009/texmf-dist/tex/latex/preprint/fullpage.sty" 1137110595 2789 05b418f78b224ec872f5b11081138605 ""
  "/usr/local/texlive/2009/texmf-dist/tex/latex/tools/xspace.sty" 1254151720 4300 fb4138ddfbf9ab83cc71acfb5435dac9 ""
  "pics/bsp.pdf" 1323008004 573324 0913423b19110a5b9b9b77caed31c5ff ""
  "pics/fig1.pdf" 1323012720 302783 019f9da5c666d5dcaa9177c9b428809a ""
  "pics/fig2.pdf" 1326981340 549997 fd401d395e1620e227a4e107f96f401c ""
  "pics/fig3.pdf" 1323168154 642328 c1034c88639a36f17978c6d0e3545a88 ""
  "pics/fig4.pdf" 1328017019 157036 fe68f51687a4571cfc6d5b842a887463 ""
  "pics/sorts.pdf" 1322916116 186578 d06fe47d61c93fc6cc315565eddd961e ""
  "vorlage.aux" 1328452390 1662 63929f9dca31f89ba623527d0b9fa392 ""
  "vorlage.bbl" 1328447002 2020 a7ab999227011c71533f824a7266c9e1 "bibtex vorlage"
