\relax 
\citation{*}
\citation{Thorup2002}
\citation{KirkpatrickR84}
\@writefile{toc}{\contentsline {section}{\numberline {1}Integer Sorting}{1}}
\newlabel{sec:integer_sorting}{{1}{1}}
\@writefile{toc}{\contentsline {subsection}{\numberline {1.1}Overview}{1}}
\newlabel{sub:overview_what_we_already_know}{{1.1}{1}}
\@writefile{lof}{\contentsline {figure}{\numberline {1}{\ignorespaces }}{1}}
\newlabel{fig:sorts}{{1}{1}}
\citation{Thorup2002}
\citation{Andersson1995}
\@writefile{toc}{\contentsline {subsection}{\numberline {1.2}Signature Sort}{2}}
\newlabel{sub:signature_sort}{{1.2}{2}}
\@writefile{lof}{\contentsline {figure}{\numberline {2}{\ignorespaces }}{2}}
\newlabel{fig:keyandchunks}{{2}{2}}
\@writefile{lof}{\contentsline {figure}{\numberline {3}{\ignorespaces }}{2}}
\newlabel{fig:hash}{{3}{2}}
\citation{Dietzfelbinger:1997:RRA:264631.264633}
\citation{Dietzfelbinger:1997:RRA:264631.264633}
\@writefile{lof}{\contentsline {figure}{\numberline {4}{\ignorespaces }}{3}}
\newlabel{fig:psonhashes}{{4}{3}}
\@writefile{lof}{\contentsline {figure}{\numberline {5}{\ignorespaces }}{4}}
\newlabel{fig:trie}{{5}{4}}
\bibstyle{plainnat}
\bibdata{lib}
\bibcite{Andersson1995}{{1}{1995}{{Andersson et~al.}}{{Andersson, Hagerup, Nilsson, and Raman}}}
\@writefile{lof}{\contentsline {figure}{\numberline {6}{\ignorespaces }}{7}}
\newlabel{fig:bsp}{{6}{7}}
\bibcite{Demaine2005}{{2}{2005}{{Demaine}}{{}}}
\bibcite{Dietzfelbinger:1997:RRA:264631.264633}{{3}{1997}{{Dietzfelbinger et~al.}}{{Dietzfelbinger, Hagerup, Katajainen, and Penttonen}}}
\bibcite{Thorup2002}{{4}{2002}{{Han and Thorup}}{{}}}
\bibcite{KirkpatrickR84}{{5}{1984}{{Kirkpatrick and Reisch}}{{}}}
